<?xml version="1.0" encoding="UTF-8" standalone="no"?>
<!-- Created with Inkscape (http://www.inkscape.org/) -->

<svg
   xmlns:dc="http://purl.org/dc/elements/1.1/"
   xmlns:cc="http://creativecommons.org/ns#"
   xmlns:rdf="http://www.w3.org/1999/02/22-rdf-syntax-ns#"
   xmlns:svg="http://www.w3.org/2000/svg"
   xmlns="http://www.w3.org/2000/svg"
   xmlns:sodipodi="http://sodipodi.sourceforge.net/DTD/sodipodi-0.dtd"
   xmlns:inkscape="http://www.inkscape.org/namespaces/inkscape"
   width="64px"
   height="64px"
   id="svg4334"
   version="1.1"
   inkscape:version="0.48.2 r9819"
   sodipodi:docname="X1.svg">
  <defs
     id="defs4336" />
  <sodipodi:namedview
     id="base"
     pagecolor="#ffffff"
     bordercolor="#666666"
     borderopacity="0"
     inkscape:pageopacity="0.0"
     inkscape:pageshadow="2"
     inkscape:zoom="8.9483146"
     inkscape:cx="66.943305"
     inkscape:cy="25.026104"
     inkscape:current-layer="layer1"
     showgrid="true"
     inkscape:document-units="px"
     inkscape:grid-bbox="true"
     inkscape:window-width="1920"
     inkscape:window-height="1005"
     inkscape:window-x="-9"
     inkscape:window-y="-9"
     inkscape:window-maximized="1" />
  <metadata
     id="metadata4339">
    <rdf:RDF>
      <cc:Work
         rdf:about="">
        <dc:format>image/svg+xml</dc:format>
        <dc:type
           rdf:resource="http://purl.org/dc/dcmitype/StillImage" />
        <dc:title />
      </cc:Work>
    </rdf:RDF>
  </metadata>
  <g
     id="layer1"
     inkscape:label="Layer 1"
     inkscape:groupmode="layer">
    <path
       style="fill:#ffffff;fill-opacity:1;fill-rule:evenodd;stroke:#ffffff;stroke-width:0.77999997;stroke-linejoin:miter;stroke-miterlimit:4;stroke-opacity:1;stroke-dasharray:none"
       d="m 0.30183001,0.66508621 0,63.21874979 63.21874999,0 0,-63.21874979 -63.21874999,0 z M 31.95808,3.6338362 c 15.61977,0 28.28125,12.8300168 28.28125,28.6249998 0,15.794983 -12.66148,28.59375 -28.28125,28.59375 -15.61977,0 -28.3125,-12.798767 -28.3125,-28.59375 0,-15.794983 12.69273,-28.6249998 28.3125,-28.6249998 z"
       id="rect4342-1"
       inkscape:connector-curvature="0" />
    <path
       style="fill:#000000;fill-opacity:1;fill-rule:evenodd;stroke:#000000;stroke-width:0;stroke-linejoin:miter;stroke-miterlimit:4;stroke-opacity:1;stroke-dasharray:none"
       d="m 31.905375,2.6161632 c -16.529713,0 -29.929687,13.3999768 -29.929687,29.9296818 0,16.529708 13.399974,29.929685 29.929687,29.929685 16.529705,0 29.929678,-13.399977 29.929678,-29.929685 0,-16.529705 -13.399973,-29.9296818 -29.929678,-29.9296818 z m 0.02874,2.072055 c 15.258186,0 27.627398,12.3692078 27.627398,27.6274008 0,15.258191 -12.369212,27.627399 -27.627398,27.627399 -15.258205,0 -27.627408,-12.369208 -27.627408,-27.627399 0,-15.258193 12.369203,-27.6274008 27.627408,-27.6274008 z"
       id="path4901"
       inkscape:connector-curvature="0" />
    <path
       sodipodi:type="arc"
       style="fill:none;stroke:#000000;stroke-width:1.22366536;stroke-miterlimit:4;stroke-opacity:1;stroke-dasharray:none"
       id="path2999"
       sodipodi:cx="-82.808891"
       sodipodi:cy="23.992466"
       sodipodi:rx="10.169513"
       sodipodi:ry="13.857358"
       d="m -72.639379,23.992466 a 10.169513,13.857358 0 1 1 -20.339025,0 10.169513,13.857358 0 1 1 20.339025,0 z"
       transform="matrix(2.2910799,0,0,1.6813571,221.53136,-8.1482599)" />
  </g>
</svg>
